Exploratory Data Analysis
…
Notice the log(Income) for ShelveLoc = Bad and US = No looks somewhat normal while the rest are not.

Bivariate data EDA

Calculation of correlation coefficient using correlate()

Correlate() finds the correlation coefficient of all combinations of carseats numerical variables as follows:

correlate(carseats)

## # A tibble: 56 x 3
##    var1        var2      coef_corr
##    <fct>       <fct>         <dbl>
##  1 CompPrice   Sales        0.0641
##  2 Income      Sales        0.153 
##  3 Advertising Sales        0.270 
##  4 Population  Sales        0.0505
##  5 Price       Sales       -0.445 
##  6 Age         Sales       -0.232 
##  7 Education   Sales       -0.0520
##  8 Sales       CompPrice    0.0641
##  9 Income      CompPrice   -0.0918
## 10 Advertising CompPrice   -0.0242
## # ... with 46 more rows

# can compute correlations between specified variables e.g. correlate(carseats, Sales, CompPrice, Income)

carseats %>%
  correlate() %>%
  arrange(desc(abs(coef_corr)))

## # A tibble: 56 x 3
##    var1        var2        coef_corr
##    <fct>       <fct>           <dbl>
##  1 Price       CompPrice       0.585
##  2 CompPrice   Price           0.585
##  3 Price       Sales          -0.445
##  4 Sales       Price          -0.445
##  5 Advertising Sales           0.270
##  6 Sales       Advertising     0.270
##  7 Population  Advertising     0.266
##  8 Advertising Population      0.266
##  9 Age         Sales          -0.232
## 10 Sales       Age            -0.232
## # ... with 46 more rows
…
